<?xml version="1.0" encoding="utf-8"?>
<!-- Generator: Adobe Illustrator 19.1.0, SVG Export Plug-In . SVG Version: 6.00 Build 0)  -->
<svg version="1.1" id="Layer_1" xmlns="http://www.w3.org/2000/svg" xmlns:xlink="http://www.w3.org/1999/xlink" x="0px" y="0px"
	 viewBox="3 -2 36 24" style="enable-background:new 3 -2 36 24;" xml:space="preserve">
<style type="text/css">
	.st0{fill:#DBDADA;}
</style>
<polygon class="st0" points="21.1,21.5 3.2,-0.9 4,-1.5 21.1,20 38,-1.5 38.8,-0.9 "/>
</svg>
