<?xml version="1.0" encoding="utf-8"?>
<!-- Generator: Adobe Illustrator 19.1.0, SVG Export Plug-In . SVG Version: 6.00 Build 0)  -->
<svg version="1.1" id="Layer_1" xmlns="http://www.w3.org/2000/svg" xmlns:xlink="http://www.w3.org/1999/xlink" x="0px" y="0px"
	 viewBox="-2 -9 25 38" style="enable-background:new -2 -9 25 38;" xml:space="preserve">
<style type="text/css">
	.st0{fill:#DBDADA;}
</style>
<polygon class="st0" points="-0.6,28.4 -1.2,27.6 21.1,10.2 -1.2,-7.6 -0.6,-8.4 22.7,10.2 "/>
</svg>
